{
    "DamageCalculations": [
        {
            "acidDamage1bonus": 0,
            "acidDamage1chance": 100,
            "acidDamage1number": 0,
            "acidDamage1sides": 2,
            "acidDamage2bonus": 0,
            "acidDamage2chance": 100,
            "acidDamage2number": 0,
            "acidDamage2sides": 2,
            "attacksPerRound1": 1,
            "attacksPerRound2": 1,
            "baseThac0": 10,
            "classDamageBonus": 0,
            "classThac0Bonus": 0,
            "coldDamage1bonus": 0,
            "coldDamage1chance": 100,
            "coldDamage1number": 0,
            "coldDamage1sides": 2,
            "coldDamage2bonus": 0,
            "coldDamage2chance": 100,
            "coldDamage2number": 0,
            "coldDamage2sides": 2,
            "criticalHitChance1": 5,
            "criticalHitChance2": 5,
            "criticalStrike": false,
            "damageType1": 3,
            "damageType2": 0,
            "electricityDamage1bonus": 0,
            "electricityDamage1chance": 100,
            "electricityDamage1number": 0,
            "electricityDamage1sides": 2,
            "electricityDamage2bonus": 0,
            "electricityDamage2chance": 100,
            "electricityDamage2number": 0,
            "electricityDamage2sides": 2,
            "fireDamage1bonus": 0,
            "fireDamage1chance": 100,
            "fireDamage1number": 0,
            "fireDamage1sides": 2,
            "fireDamage2bonus": 0,
            "fireDamage2chance": 100,
            "fireDamage2number": 0,
            "fireDamage2sides": 2,
            "luck": 0,
            "maximumDamage": false,
            "name": "Default",
            "offHandGroup": false,
            "proficiencyDamageModifier1": 3,
            "proficiencyDamageModifier2": 0,
            "proficiencyThac0Modifier1": 3,
            "proficiencyThac0Modifier2": 0,
            "strengthDamageBonus": 0,
            "strengthThac0Bonus": 0,
            "styleModifier1": 0,
            "styleModifier2": 0,
            "weaponDamageDiceBonus1": 4,
            "weaponDamageDiceBonus2": 0,
            "weaponDamageDiceNumber1": 5,
            "weaponDamageDiceNumber2": 1,
            "weaponDamageDiceSide1": 4,
            "weaponDamageDiceSide2": 4,
            "weaponThac0Modifier1": 4,
            "weaponThac0Modifier2": 0
        },
        {
            "acidDamage1bonus": 0,
            "acidDamage1chance": 100,
            "acidDamage1number": 0,
            "acidDamage1sides": 2,
            "acidDamage2bonus": 0,
            "acidDamage2chance": 100,
            "acidDamage2number": 0,
            "acidDamage2sides": 2,
            "attacksPerRound1": 1,
            "attacksPerRound2": 1,
            "baseThac0": 10,
            "classDamageBonus": 0,
            "classThac0Bonus": 0,
            "coldDamage1bonus": 0,
            "coldDamage1chance": 100,
            "coldDamage1number": 0,
            "coldDamage1sides": 2,
            "coldDamage2bonus": 0,
            "coldDamage2chance": 100,
            "coldDamage2number": 0,
            "coldDamage2sides": 2,
            "criticalHitChance1": 5,
            "criticalHitChance2": 5,
            "criticalStrike": false,
            "damageType1": 3,
            "damageType2": 0,
            "electricityDamage1bonus": 0,
            "electricityDamage1chance": 100,
            "electricityDamage1number": 0,
            "electricityDamage1sides": 2,
            "electricityDamage2bonus": 0,
            "electricityDamage2chance": 100,
            "electricityDamage2number": 0,
            "electricityDamage2sides": 2,
            "fireDamage1bonus": 0,
            "fireDamage1chance": 100,
            "fireDamage1number": 0,
            "fireDamage1sides": 2,
            "fireDamage2bonus": 0,
            "fireDamage2chance": 100,
            "fireDamage2number": 0,
            "fireDamage2sides": 2,
            "luck": 0,
            "maximumDamage": false,
            "name": "With Strength",
            "offHandGroup": false,
            "proficiencyDamageModifier1": 3,
            "proficiencyDamageModifier2": 0,
            "proficiencyThac0Modifier1": 3,
            "proficiencyThac0Modifier2": 0,
            "strengthDamageBonus": 2,
            "strengthThac0Bonus": 1,
            "styleModifier1": 0,
            "styleModifier2": 0,
            "weaponDamageDiceBonus1": 4,
            "weaponDamageDiceBonus2": 0,
            "weaponDamageDiceNumber1": 5,
            "weaponDamageDiceNumber2": 1,
            "weaponDamageDiceSide1": 4,
            "weaponDamageDiceSide2": 4,
            "weaponThac0Modifier1": 4,
            "weaponThac0Modifier2": 0
        },
        {
            "acidDamage1bonus": 0,
            "acidDamage1chance": 100,
            "acidDamage1number": 0,
            "acidDamage1sides": 2,
            "acidDamage2bonus": 0,
            "acidDamage2chance": 100,
            "acidDamage2number": 0,
            "acidDamage2sides": 2,
            "attacksPerRound1": 2,
            "attacksPerRound2": 1,
            "baseThac0": 10,
            "classDamageBonus": 0,
            "classThac0Bonus": 0,
            "coldDamage1bonus": 0,
            "coldDamage1chance": 100,
            "coldDamage1number": 0,
            "coldDamage1sides": 2,
            "coldDamage2bonus": 0,
            "coldDamage2chance": 100,
            "coldDamage2number": 0,
            "coldDamage2sides": 2,
            "criticalHitChance1": 5,
            "criticalHitChance2": 5,
            "criticalStrike": false,
            "damageType1": 3,
            "damageType2": 0,
            "electricityDamage1bonus": 0,
            "electricityDamage1chance": 100,
            "electricityDamage1number": 0,
            "electricityDamage1sides": 2,
            "electricityDamage2bonus": 0,
            "electricityDamage2chance": 100,
            "electricityDamage2number": 0,
            "electricityDamage2sides": 2,
            "fireDamage1bonus": 0,
            "fireDamage1chance": 100,
            "fireDamage1number": 0,
            "fireDamage1sides": 2,
            "fireDamage2bonus": 0,
            "fireDamage2chance": 100,
            "fireDamage2number": 0,
            "fireDamage2sides": 2,
            "luck": 0,
            "maximumDamage": false,
            "name": "Hasted",
            "offHandGroup": false,
            "proficiencyDamageModifier1": 3,
            "proficiencyDamageModifier2": 0,
            "proficiencyThac0Modifier1": 3,
            "proficiencyThac0Modifier2": 0,
            "strengthDamageBonus": 0,
            "strengthThac0Bonus": 0,
            "styleModifier1": 0,
            "styleModifier2": 0,
            "weaponDamageDiceBonus1": 4,
            "weaponDamageDiceBonus2": 0,
            "weaponDamageDiceNumber1": 5,
            "weaponDamageDiceNumber2": 1,
            "weaponDamageDiceSide1": 4,
            "weaponDamageDiceSide2": 4,
            "weaponThac0Modifier1": 4,
            "weaponThac0Modifier2": 0
        }
    ],
    "title": "<h3>Mordenkainen's Sword"
}
