{
    "DamageCalculations": [
        {
            "acidDamage1bonus": 0,
            "acidDamage1number": 0,
            "acidDamage1probability": 100,
            "acidDamage1sides": 2,
            "acidDamage2bonus": 0,
            "acidDamage2number": 0,
            "acidDamage2probability": 100,
            "acidDamage2sides": 2,
            "attacksPerRound1": 2,
            "attacksPerRound2": 1,
            "baseThac0": 13,
            "classDamageBonus": 0,
            "classThac0Bonus": 2,
            "coldDamage1bonus": 0,
            "coldDamage1number": 0,
            "coldDamage1probability": 100,
            "coldDamage1sides": 2,
            "coldDamage2bonus": 0,
            "coldDamage2number": 0,
            "coldDamage2probability": 100,
            "coldDamage2sides": 2,
            "color": "#ff0000",
            "criticalHitChance1": 5,
            "criticalHitChance2": 5,
            "criticalStrike": false,
            "damageType1": 0,
            "damageType2": 0,
            "electricityDamage1bonus": 0,
            "electricityDamage1number": 0,
            "electricityDamage1probability": 100,
            "electricityDamage1sides": 2,
            "electricityDamage2bonus": 0,
            "electricityDamage2number": 0,
            "electricityDamage2probability": 100,
            "electricityDamage2sides": 2,
            "fireDamage1bonus": 0,
            "fireDamage1number": 0,
            "fireDamage1probability": 100,
            "fireDamage1sides": 2,
            "fireDamage2bonus": 0,
            "fireDamage2number": 0,
            "fireDamage2probability": 100,
            "fireDamage2sides": 2,
            "luck": 0,
            "maximumDamage": false,
            "name": "Unarmed (vanilla)",
            "offHandGroup": false,
            "proficiencyDamageModifier1": 0,
            "proficiencyDamageModifier2": 0,
            "proficiencyThac0Modifier1": 0,
            "proficiencyThac0Modifier2": 0,
            "strengthDamageBonus": 1,
            "strengthThac0Bonus": 0,
            "styleModifier1": 0,
            "styleModifier2": 0,
            "weaponDamageDiceBonus1": 0,
            "weaponDamageDiceBonus2": 0,
            "weaponDamageDiceNumber1": 1,
            "weaponDamageDiceNumber2": 1,
            "weaponDamageDiceSide1": 10,
            "weaponDamageDiceSide2": 8,
            "weaponThac0Modifier1": 0,
            "weaponThac0Modifier2": 0
        },
        {
            "acidDamage1bonus": 0,
            "acidDamage1number": 0,
            "acidDamage1probability": 100,
            "acidDamage1sides": 2,
            "acidDamage2bonus": 0,
            "acidDamage2number": 0,
            "acidDamage2probability": 100,
            "acidDamage2sides": 2,
            "attacksPerRound1": 2.5,
            "attacksPerRound2": 1,
            "baseThac0": 13,
            "classDamageBonus": 1,
            "classThac0Bonus": 3,
            "coldDamage1bonus": 0,
            "coldDamage1number": 0,
            "coldDamage1probability": 100,
            "coldDamage1sides": 2,
            "coldDamage2bonus": 0,
            "coldDamage2number": 0,
            "coldDamage2probability": 100,
            "coldDamage2sides": 2,
            "color": "#00aa00",
            "criticalHitChance1": 5,
            "criticalHitChance2": 5,
            "criticalStrike": false,
            "damageType1": 0,
            "damageType2": 0,
            "electricityDamage1bonus": 0,
            "electricityDamage1number": 0,
            "electricityDamage1probability": 100,
            "electricityDamage1sides": 2,
            "electricityDamage2bonus": 0,
            "electricityDamage2number": 0,
            "electricityDamage2probability": 100,
            "electricityDamage2sides": 2,
            "fireDamage1bonus": 0,
            "fireDamage1number": 0,
            "fireDamage1probability": 100,
            "fireDamage1sides": 2,
            "fireDamage2bonus": 0,
            "fireDamage2number": 0,
            "fireDamage2probability": 100,
            "fireDamage2sides": 2,
            "luck": 0,
            "maximumDamage": false,
            "name": "Unarmed @2.5 APR (GC mod)",
            "offHandGroup": false,
            "proficiencyDamageModifier1": 0,
            "proficiencyDamageModifier2": 0,
            "proficiencyThac0Modifier1": 0,
            "proficiencyThac0Modifier2": 0,
            "strengthDamageBonus": 0,
            "strengthThac0Bonus": 0,
            "styleModifier1": 0,
            "styleModifier2": 0,
            "weaponDamageDiceBonus1": 0,
            "weaponDamageDiceBonus2": 0,
            "weaponDamageDiceNumber1": 1,
            "weaponDamageDiceNumber2": 1,
            "weaponDamageDiceSide1": 8,
            "weaponDamageDiceSide2": 8,
            "weaponThac0Modifier1": 0,
            "weaponThac0Modifier2": 0
        },
        {
            "acidDamage1bonus": 0,
            "acidDamage1number": 0,
            "acidDamage1probability": 100,
            "acidDamage1sides": 2,
            "acidDamage2bonus": 0,
            "acidDamage2number": 0,
            "acidDamage2probability": 100,
            "acidDamage2sides": 2,
            "attacksPerRound1": 3.5,
            "attacksPerRound2": 1,
            "baseThac0": 13,
            "classDamageBonus": 1,
            "classThac0Bonus": 3,
            "coldDamage1bonus": 0,
            "coldDamage1number": 0,
            "coldDamage1probability": 100,
            "coldDamage1sides": 2,
            "coldDamage2bonus": 0,
            "coldDamage2number": 0,
            "coldDamage2probability": 100,
            "coldDamage2sides": 2,
            "color": "#00aa7f",
            "criticalHitChance1": 5,
            "criticalHitChance2": 5,
            "criticalStrike": false,
            "damageType1": 0,
            "damageType2": 0,
            "electricityDamage1bonus": 0,
            "electricityDamage1number": 0,
            "electricityDamage1probability": 100,
            "electricityDamage1sides": 2,
            "electricityDamage2bonus": 0,
            "electricityDamage2number": 0,
            "electricityDamage2probability": 100,
            "electricityDamage2sides": 2,
            "fireDamage1bonus": 0,
            "fireDamage1number": 0,
            "fireDamage1probability": 100,
            "fireDamage1sides": 2,
            "fireDamage2bonus": 0,
            "fireDamage2number": 0,
            "fireDamage2probability": 100,
            "fireDamage2sides": 2,
            "luck": 0,
            "maximumDamage": false,
            "name": "Unarmed @3.5 APR (GC mod)",
            "offHandGroup": false,
            "proficiencyDamageModifier1": 0,
            "proficiencyDamageModifier2": 0,
            "proficiencyThac0Modifier1": 0,
            "proficiencyThac0Modifier2": 0,
            "strengthDamageBonus": 1,
            "strengthThac0Bonus": 0,
            "styleModifier1": 0,
            "styleModifier2": 0,
            "weaponDamageDiceBonus1": 0,
            "weaponDamageDiceBonus2": 0,
            "weaponDamageDiceNumber1": 1,
            "weaponDamageDiceNumber2": 1,
            "weaponDamageDiceSide1": 8,
            "weaponDamageDiceSide2": 8,
            "weaponThac0Modifier1": 0,
            "weaponThac0Modifier2": 0
        },
        {
            "acidDamage1bonus": 0,
            "acidDamage1number": 0,
            "acidDamage1probability": 100,
            "acidDamage1sides": 2,
            "acidDamage2bonus": 0,
            "acidDamage2number": 0,
            "acidDamage2probability": 100,
            "acidDamage2sides": 2,
            "attacksPerRound1": 2,
            "attacksPerRound2": 1,
            "baseThac0": 13,
            "classDamageBonus": 1,
            "classThac0Bonus": 3,
            "coldDamage1bonus": 0,
            "coldDamage1number": 0,
            "coldDamage1probability": 100,
            "coldDamage1sides": 2,
            "coldDamage2bonus": 0,
            "coldDamage2number": 0,
            "coldDamage2probability": 100,
            "coldDamage2sides": 2,
            "color": "#99ca53",
            "criticalHitChance1": 5,
            "criticalHitChance2": 5,
            "criticalStrike": false,
            "damageType1": 3,
            "damageType2": 3,
            "electricityDamage1bonus": 0,
            "electricityDamage1number": 0,
            "electricityDamage1probability": 100,
            "electricityDamage1sides": 2,
            "electricityDamage2bonus": 0,
            "electricityDamage2number": 0,
            "electricityDamage2probability": 100,
            "electricityDamage2sides": 2,
            "fireDamage1bonus": 0,
            "fireDamage1number": 0,
            "fireDamage1probability": 100,
            "fireDamage1sides": 2,
            "fireDamage2bonus": 0,
            "fireDamage2number": 0,
            "fireDamage2probability": 100,
            "fireDamage2sides": 2,
            "luck": 0,
            "maximumDamage": false,
            "name": "Scimitar+2 dual wielding (GC mod)",
            "offHandGroup": true,
            "proficiencyDamageModifier1": 0,
            "proficiencyDamageModifier2": 0,
            "proficiencyThac0Modifier1": 0,
            "proficiencyThac0Modifier2": 0,
            "strengthDamageBonus": 1,
            "strengthThac0Bonus": 0,
            "styleModifier1": 0,
            "styleModifier2": -2,
            "weaponDamageDiceBonus1": 2,
            "weaponDamageDiceBonus2": 2,
            "weaponDamageDiceNumber1": 1,
            "weaponDamageDiceNumber2": 1,
            "weaponDamageDiceSide1": 8,
            "weaponDamageDiceSide2": 8,
            "weaponThac0Modifier1": 2,
            "weaponThac0Modifier2": 2
        },
        {
            "acidDamage1bonus": 0,
            "acidDamage1number": 0,
            "acidDamage1probability": 100,
            "acidDamage1sides": 2,
            "acidDamage2bonus": 0,
            "acidDamage2number": 0,
            "acidDamage2probability": 100,
            "acidDamage2sides": 2,
            "attacksPerRound1": 2,
            "attacksPerRound2": 1,
            "baseThac0": 13,
            "classDamageBonus": 0,
            "classThac0Bonus": 0,
            "coldDamage1bonus": 1,
            "coldDamage1number": 0,
            "coldDamage1probability": 100,
            "coldDamage1sides": 2,
            "coldDamage2bonus": 0,
            "coldDamage2number": 0,
            "coldDamage2probability": 100,
            "coldDamage2sides": 2,
            "color": "#ffaa00",
            "criticalHitChance1": 5,
            "criticalHitChance2": 5,
            "criticalStrike": false,
            "damageType1": 0,
            "damageType2": 0,
            "electricityDamage1bonus": 0,
            "electricityDamage1number": 0,
            "electricityDamage1probability": 100,
            "electricityDamage1sides": 2,
            "electricityDamage2bonus": 0,
            "electricityDamage2number": 0,
            "electricityDamage2probability": 100,
            "electricityDamage2sides": 2,
            "fireDamage1bonus": 0,
            "fireDamage1number": 0,
            "fireDamage1probability": 100,
            "fireDamage1sides": 2,
            "fireDamage2bonus": 0,
            "fireDamage2number": 0,
            "fireDamage2probability": 100,
            "fireDamage2sides": 2,
            "luck": 0,
            "maximumDamage": false,
            "name": "Khalid/8 Ashideena",
            "offHandGroup": false,
            "proficiencyDamageModifier1": 4,
            "proficiencyDamageModifier2": 0,
            "proficiencyThac0Modifier1": 3,
            "proficiencyThac0Modifier2": 0,
            "strengthDamageBonus": 0,
            "strengthThac0Bonus": 0,
            "styleModifier1": 0,
            "styleModifier2": 0,
            "weaponDamageDiceBonus1": 3,
            "weaponDamageDiceBonus2": 0,
            "weaponDamageDiceNumber1": 1,
            "weaponDamageDiceNumber2": 1,
            "weaponDamageDiceSide1": 4,
            "weaponDamageDiceSide2": 8,
            "weaponThac0Modifier1": 2,
            "weaponThac0Modifier2": 0
        },
        {
            "acidDamage1bonus": 0,
            "acidDamage1number": 0,
            "acidDamage1probability": 100,
            "acidDamage1sides": 2,
            "acidDamage2bonus": 0,
            "acidDamage2number": 0,
            "acidDamage2probability": 100,
            "acidDamage2sides": 2,
            "attacksPerRound1": 2,
            "attacksPerRound2": 1,
            "baseThac0": 13,
            "classDamageBonus": 0,
            "classThac0Bonus": 0,
            "coldDamage1bonus": 1,
            "coldDamage1number": 0,
            "coldDamage1probability": 100,
            "coldDamage1sides": 2,
            "coldDamage2bonus": 0,
            "coldDamage2number": 0,
            "coldDamage2probability": 100,
            "coldDamage2sides": 2,
            "color": "#ffaa7f",
            "criticalHitChance1": 5,
            "criticalHitChance2": 5,
            "criticalStrike": false,
            "damageType1": 0,
            "damageType2": 0,
            "electricityDamage1bonus": 0,
            "electricityDamage1number": 0,
            "electricityDamage1probability": 100,
            "electricityDamage1sides": 2,
            "electricityDamage2bonus": 0,
            "electricityDamage2number": 0,
            "electricityDamage2probability": 100,
            "electricityDamage2sides": 2,
            "fireDamage1bonus": 0,
            "fireDamage1number": 0,
            "fireDamage1probability": 100,
            "fireDamage1sides": 2,
            "fireDamage2bonus": 0,
            "fireDamage2number": 0,
            "fireDamage2probability": 100,
            "fireDamage2sides": 2,
            "luck": 0,
            "maximumDamage": false,
            "name": "Ajantis/8 Ashideena",
            "offHandGroup": false,
            "proficiencyDamageModifier1": 2,
            "proficiencyDamageModifier2": 0,
            "proficiencyThac0Modifier1": 1,
            "proficiencyThac0Modifier2": 0,
            "strengthDamageBonus": 1,
            "strengthThac0Bonus": 1,
            "styleModifier1": 0,
            "styleModifier2": 0,
            "weaponDamageDiceBonus1": 3,
            "weaponDamageDiceBonus2": 0,
            "weaponDamageDiceNumber1": 1,
            "weaponDamageDiceNumber2": 1,
            "weaponDamageDiceSide1": 4,
            "weaponDamageDiceSide2": 8,
            "weaponThac0Modifier1": 2,
            "weaponThac0Modifier2": 0
        }
    ],
    "title": "<h3>Rasaad/8 (vanilla vs GC) vs Khalid, Ajantis"
}
